laRVa2_DC/tb.vcd
$date
	Thu Nov 20 12:49:27 2025
$end
$version
	Icarus Verilog
$end
$timescale
	1s
$end
$scope module tb $end
$var reg 1 ! clk $end
$var reg 1 " resetb $end
$var reg 1 # rxd $end
$scope module sys1 $end
$var wire 1 $ cclk $end
$var wire 1 ! clk $end
$var wire 1 % fssb $end
$var wire 1 & iocs $end
$var wire 1 ' iramcs $end
$var wire 1 ( irq $end
$var wire 1 ) irqcs $end
$var wire 30 * ivector [31:2] $end
$var wire 1 + miso $end
$var wire 1 , mosi $end
$var wire 1 - reset $end
$var wire 1 # rxd $end
$var wire 1 . sck $end
$var wire 1 / uartcs $end
$var wire 1 0 urd $end
$var wire 1 1 uwrbaud $end
$var wire 1 2 uwrtx $end
$var wire 1 3 vma $end
$var wire 2 4 vecn [1:0] $end
$var wire 8 5 uart_do [7:0] $end
$var wire 1 6 txd $end
$var wire 1 7 trap $end
$var wire 1 8 thre $end
$var wire 1 9 tend $end
$var wire 1 : ove $end
$var wire 4 ; mwe [3:0] $end
$var wire 32 < mdo [31:0] $end
$var wire 2 = irqpen [1:0] $end
$var wire 1 > fe $end
$var wire 1 ? dv $end
$var wire 32 @ cdo [31:0] $end
$var wire 32 A ca [31:0] $end
$var reg 32 B cdi [31:0] $end
$var reg 32 C iodo [31:0] $end
$var reg 2 D irqen [1:0] $end
$var reg 32 E tcount [31:0] $end
$scope module cpu $end
$var wire 1 F LOAD_sign $end
$var wire 30 G PCimm [31:2] $end
$var wire 32 H aluIn2 [31:0] $end
$var wire 32 I aluOut [31:0] $end
$var wire 32 J aluOut_tmp [31:0] $end
$var wire 1 K brk $end
$var wire 1 L brktrap $end
$var wire 1 $ clk $end
$var wire 1 M clken $end
$var wire 1 N csrrw_mepc $end
$var wire 1 O ebreak $end
$var wire 1 P ecall $end
$var wire 1 Q fetch $end
$var wire 1 R ireti $end
$var wire 1 ( irq $end
$var wire 1 S irqack $end
$var wire 1 T irqstart $end
$var wire 1 U issub $end
$var wire 30 V ivector [31:2] $end
$var wire 1 W jump $end
$var wire 1 X left_sh $end
$var wire 1 Y mret $end
$var wire 1 Z opauipc $end
$var wire 1 [ opbranch $end
$var wire 1 \ opdiv $end
$var wire 1 ] opimm $end
$var wire 1 ^ opjal $end
$var wire 1 _ opjalr $end
$var wire 1 ` opload $end
$var wire 1 a oplui $end
$var wire 1 b opmul $end
$var wire 1 c opreg $end
$var wire 1 d opstore $end
$var wire 1 e opsystem $end
$var wire 32 f rdata [31:0] $end
$var wire 32 g regsD [31:0] $end
$var wire 1 h regswr $end
$var wire 1 - reset $end
$var wire 1 i seladd $end
$var wire 1 j signed_sh $end
$var wire 1 7 trap $end
$var wire 1 k usermode $end
$var wire 1 3 vma $end
$var wire 1 l wai $end
$var wire 4 m wstrb [3:0] $end
$var wire 32 n wdata [31:0] $end
$var wire 32 o sh_t5 [31:0] $end
$var wire 32 p sh_t4 [31:0] $end
$var wire 32 q sh_t3 [31:0] $end
$var wire 32 r sh_t2 [31:0] $end
$var wire 32 s sh_t1 [31:0] $end
$var wire 32 t sh_out [31:0] $end
$var wire 32 u sh_in [31:0] $end
$var wire 5 v rs2 [4:0] $end
$var wire 5 w rs1 [4:0] $end
$var wire 32 x regsQ2 [31:0] $end
$var wire 32 y regsQ1 [31:0] $end
$var wire 5 z rd [4:0] $end
$var wire 8 { prlist [7:0] $end
$var wire 1 | predicate $end
$var wire 7 } opcode [6:0] $end
$var wire 32 ~ multout [31:0] $end
$var wire 1 !" mem_halfwordAccess $end
$var wire 1 "" mem_byteAccess $end
$var wire 1 #" mbusy $end
$var wire 32 $" ldstaddr [31:0] $end
$var wire 7 %" funct7 [6:0] $end
$var wire 3 &" funct3 [2:0] $end
$var wire 32 '" divout [31:0] $end
$var wire 1 (" dbusy $end
$var wire 32 )" aluIn1 [31:0] $end
$var wire 33 *" aluAdder [32:0] $end
$var wire 30 +" addr [31:2] $end
$var wire 32 ," Uimm [31:0] $end
$var wire 32 -" Simm [31:0] $end
$var wire 30 ." PCnext [31:2] $end
$var wire 30 /" PCadd2 [31:2] $end
$var wire 30 0" PCadd1 [31:2] $end
$var wire 30 1" PC [31:2] $end
$var wire 1 2" LTU $end
$var wire 1 3" LT $end
$var wire 16 4" LOAD_halfword [15:0] $end
$var wire 32 5" LOAD_data [31:0] $end
$var wire 8 6" LOAD_byte [7:0] $end
$var wire 32 7" Jimm [31:0] $end
$var wire 32 8" Iimm [31:0] $end
$var wire 1 9" EQ $end
$var wire 32 :" Bimm [31:0] $end
$var reg 32 ;" IR [31:0] $end
$var reg 30 <" PCci [31:2] $end
$var reg 30 =" PCreg0 [31:2] $end
$var reg 30 >" PCreg1 [31:2] $end
$var reg 1 ?" mmode $end
$var reg 1 @" obrk $end
$var reg 1 A" ommode $end
$var reg 1 B" opvalid $end
$var reg 1 C" q0 $end
$var integer 32 D" i [31:0] $end
$scope module div0 $end
$var wire 32 E" a [31:0] $end
$var wire 1 F" active $end
$var wire 32 G" b [31:0] $end
$var wire 1 (" busy $end
$var wire 1 $ clk $end
$var wire 1 H" iload $end
$var wire 1 \ load $end
$var wire 1 I" na $end
$var wire 1 J" nb $end
$var wire 1 K" oneg $end
$var wire 1 L" rem $end
$var wire 1 - reset $end
$var wire 1 M" unsig $end
$var wire 32 N" sub [31:0] $end
$var wire 32 O" pout [31:0] $end
$var wire 32 P" out [31:0] $end
$var wire 32 Q" mb [31:0] $end
$var wire 32 R" ma [31:0] $end
$var wire 1 S" cy $end
$var reg 6 T" bct [5:0] $end
$var reg 32 U" oa [31:0] $end
$var reg 32 V" ob [31:0] $end
$var reg 1 W" ous $end
$var reg 32 X" q [31:0] $end
$var reg 32 Y" r [31:0] $end
$upscope $end
$scope module mul0 $end
$var wire 32 Z" a [31:0] $end
$var wire 32 [" b [31:0] $end
$var wire 1 #" busy $end
$var wire 1 $ clk $end
$var wire 1 \" hm $end
$var wire 1 ]" iload $end
$var wire 1 b load $end
$var wire 1 - reset $end
$var wire 1 ^" sma $end
$var wire 1 _" ua $end
$var wire 1 `" ub $end
$var wire 64 a" pp [63:0] $end
$var wire 32 b" out [31:0] $end
$var wire 4 c" nib [3:0] $end
$var wire 32 d" mb [31:0] $end
$var wire 32 e" ma [31:0] $end
$var reg 64 f" acc [63:0] $end
$var reg 32 g" oa [31:0] $end
$var reg 32 h" ob [31:0] $end
$var reg 1 i" oua $end
$var reg 1 j" oub $end
$var reg 32 k" sha [31:0] $end
$var reg 64 l" shb [63:0] $end
$upscope $end
$upscope $end
$scope module ram0 $end
$var wire 11 m" addr [10:0] $end
$var wire 1 n" clk $end
$var wire 32 o" data_read [31:0] $end
$var wire 32 p" data_write [31:0] $end
$var wire 1 ' re $end
$var wire 4 q" wrlanes [3:0] $end
$var reg 32 r" data_out [31:0] $end
$upscope $end
$scope module uart0 $end
$var wire 1 $ clk $end
$var wire 16 s" d [15:0] $end
$var wire 1 t" falling $end
$var wire 1 > fe $end
$var wire 8 u" q [7:0] $end
$var wire 1 0 rd $end
$var wire 1 v" resinc $end
$var wire 1 # rxd $end
$var wire 1 9 tend $end
$var wire 1 1 wrbaud $end
$var wire 1 2 wrtx $end
$var wire 1 6 txd $end
$var wire 1 w" shift $end
$var wire 1 x" rxst $end
$var wire 1 y" clko $end
$var wire 1 z" clki0 $end
$var reg 4 {" cbrx [3:0] $end
$var reg 4 |" cntbit [3:0] $end
$var reg 12 }" divider [11:0] $end
$var reg 12 ~" divrx [11:0] $end
$var reg 12 !# divtx [11:0] $end
$var reg 1 ? dv $end
$var reg 1 : ove $end
$var reg 8 "# rbr [7:0] $end
$var reg 1 ## rdy $end
$var reg 2 $# rrxd [1:0] $end
$var reg 1 %# rxst0 $end
$var reg 9 &# shrx [8:0] $end
$var reg 9 '# shtx [8:0] $end
$var reg 1 (# stopb $end
$var reg 8 )# thr [7:0] $end
$var reg 1 8 thre $end
$upscope $end
$upscope $end
$upscope $end
$scope module tb $end
$scope module sys1 $end
$scope module cpu $end
$var reg 32 *# \regs[11] [31:0] $end
$upscope $end
$upscope $end
$upscope $end
$scope module tb $end
$scope module sys1 $end
$scope module cpu $end
$var reg 32 +# \regs[12] [31:0] $end
$upscope $end
$upscope $end
$upscope $end
$scope module tb $end
$scope module sys1 $end
$scope module cpu $end
$var reg 32 ,# \regs[13] [31:0] $end
$upscope $end
$upscope $end
$upscope $end
$scope module tb $end
$scope module sys1 $end
$scope module cpu $end
$var reg 32 -# \regs[14] [31:0] $end
$upscope $end
$upscope $end
$upscope $end
$scope module tb $end
$scope module sys1 $end
$scope module cpu $end
$var reg 32 .# \regs[15] [31:0] $end
$upscope $end
$upscope $end
$upscope $end
$enddefinitions $end
#0
$dumpvars
b0 .#
b0 -#
b0 ,#
b0 +#
b0 *#
bx )#
x(#
b111111111 '#
bx &#
x%#
b0 $#
1##
bx "#
b0 !#
b0 ~"
b0 }"
bx |"
b1111 {"
1z"
1y"
1x"
1w"
0v"
bx u"
0t"
b0 s"
bx r"
b0 q"
b0 p"
bx o"
1n"
b0 m"
bx l"
b0 k"
0j"
0i"
b0 h"
b0 g"
b0 f"
b0 e"
b0 d"
b0 c"
b0 b"
bx a"
x`"
x_"
0^"
0]"
x\"
b0 ["
b0 Z"
bx Y"
bx X"
0W"
b0 V"
b0 U"
b0 T"
xS"
b0 R"
b0 Q"
bx P"
bx O"
bx N"
xM"
xL"
0K"
0J"
0I"
0H"
b0 G"
1F"
b0 E"
b10000 D"
0C"
0B"
0A"
0@"
0?"
bx >"
b0 ="
bx <"
bx ;"
bx0 :"
19"
bx 8"
bx0 7"
bx 6"
bx 5"
bx 4"
03"
02"
b0 1"
b1 0"
bx /"
b1 ."
bx -"
bx000000000000 ,"
b0 +"
b0 *"
b0 )"
1("
bx '"
bx &"
bx %"
bx $"
0#"
x""
x!"
b0 ~
bx }
x|
b10100001 {
b0 z
b0 y
b0 x
b0 w
b0 v
b0 u
b0 t
b0 s
b0 r
b0 q
b0 p
b0 o
b0 n
b0 m
0l
1k
0j
xi
0h
b0 g
bx f
0e
0d
0c
0b
0a
0`
0_
0^
0]
0\
0[
0Z
0Y
0X
0W
bx V
0U
0T
0S
0R
1Q
0P
0O
0N
0M
0L
0K
b0 J
b0 I
b0 H
b0 G
xF
b0 E
b0 D
bx C
bx B
b0 A
b0 @
0?
x>
b0 =
bx <
b0 ;
0:
19
18
07
16
bx 5
bx 4
03
02
01
00
0/
z.
1-
z,
z+
bx *
0)
0(
0'
0&
z%
0$
1#
0"
0!
$end
#5
1v"
bx0000 l"
b1 $#
1%#
b1 E
0n"
1$
1!
#10
1n"
0$
0!
#15
0v"
b11 $#
bx00000000 l"
b10 E
0n"
1$
1!
#20
1n"
0$
0!
#25
bx000000000000 l"
b11 E
0n"
1$
1!
#30
1n"
0$
0!
#35
bx0000000000000000 l"
b100 E
0n"
1$
1!
#40
1n"
0$
0!
#45
bx00000000000000000000 l"
b101 E
0n"
1$
1!
#50
1n"
0$
0!
#55
bx000000000000000000000000 l"
b110 E
0n"
1$
1!
#60
1n"
0$
0!
#65
bx0000000000000000000000000000 l"
b111 E
0n"
1$
1!
#70
1n"
0$
0!
#75
bx00000000000000000000000000000000 l"
b1000 E
0n"
1$
1!
#77
0-
1"
#80
1n"
0$
0!
#85
b1 T"
bx000000000000000000000000000000000000 l"
b1001 E
0n"
1$
1!
#90
1n"
0$
0!
#95
b10 T"
bx0000000000000000000000000000000000000000 l"
b1010 E
0n"
1$
1!
#100
1n"
0$
0!
#105
b11 T"
bx00000000000000000000000000000000000000000000 l"
b1011 E
0n"
1$
1!
#110
1n"
0$
0!
#115
b100 T"
bx000000000000000000000000000000000000000000000000 l"
b1100 E
0n"
1$
1!
#120
1n"
0$
0!
#125
b101 T"
bx0000000000000000000000000000000000000000000000000000 l"
b1101 E
0n"
1$
1!
#130
1n"
0$
0!
#135
b110 T"
bx00000000000000000000000000000000000000000000000000000000 l"
b1110 E
0n"
1$
1!
#140
1n"
0$
0!
#145
b111 T"
bx000000000000000000000000000000000000000000000000000000000000 l"
b1111 E
0n"
1$
1!
#150
1n"
0$
0!
#155
b1000 T"
b0 a"
b0 l"
b10000 E
0n"
1$
1!
#160
1n"
0$
0!
#165
b1001 T"
b10001 E
0n"
1$
1!
#170
1n"
0$
0!
#175
b1010 T"
b10010 E
0n"
1$
1!
#180
1n"
0$
0!
#185
b1011 T"
b10011 E
0n"
1$
1!
#190
1n"
0$
0!
#195
b1100 T"
b10100 E
0n"
1$
1!
#200
1n"
0$
0!
#205
b1101 T"
b10101 E
0n"
1$
1!
#210
1n"
0$
0!
#215
b1110 T"
b10110 E
0n"
1$
1!
#220
1n"
0$
0!
#225
b1111 T"
b10111 E
0n"
1$
1!
#230
1n"
0$
0!
#235
b10000 T"
b11000 E
0n"
1$
1!
#240
1n"
0$
0!
#245
b10001 T"
b11001 E
0n"
1$
1!
#250
1n"
0$
0!
#255
b10010 T"
b11010 E
0n"
1$
1!
#260
1n"
0$
0!
#265
b10011 T"
b11011 E
0n"
1$
1!
#270
1n"
0$
0!
#275
b10100 T"
b11100 E
0n"
1$
1!
#280
1n"
0$
0!
#285
b10101 T"
b11101 E
0n"
1$
1!
#290
1n"
0$
0!
#295
b10110 T"
b11110 E
0n"
1$
1!
#300
1n"
0$
0!
#305
b10111 T"
b11111 E
0n"
1$
1!
#310
1n"
0$
0!
#315
b11000 T"
b100000 E
0n"
1$
1!
#320
1n"
0$
0!
#325
b11001 T"
b100001 E
0n"
1$
1!
#330
1n"
0$
0!
#335
b11010 T"
b100010 E
0n"
1$
1!
#340
1n"
0$
0!
#345
b11011 T"
b100011 E
0n"
1$
1!
#350
1n"
0$
0!
#355
b11100 T"
b100100 E
0n"
1$
1!
#360
1n"
0$
0!
#365
b11101 T"
b100101 E
0n"
1$
1!
#370
1n"
0$
0!
#375
b11110 T"
b100110 E
0n"
1$
1!
#380
1n"
0$
0!
#385
b11111 T"
b100111 E
0n"
1$
1!
#390
1n"
0$
0!
#395
1'
13
1M
0("
0F"
b100000 T"
b101000 E
0n"
1$
1!
#400
0F
b0x0000000000000001101111 5"
b1101111 6"
b1101111 4"
b10000000000000001101111 B
b10000000000000001101111 f
b10000000000000001101111 <
b10000000000000001101111 o"
b10000000000000001101111 r"
1n"
0$
0!
#405
xF
bx 6"
bx 4"
bx B
bx f
bx0x110 C
0'
03
1h
b100 g
b1 ."
b1 m"
1W
b1 G
1i
bx 5"
b100 A
b1 +"
0_"
0`"
0\"
0M"
0L"
1""
0!"
b0 $"
b10 0"
b1 1"
b100 v
1^
b1101111 }
1|
b0 &"
b0 %"
b10000000000000000000000 ,"
b100 8"
b0 -"
b0 :"
b100 7"
b1 ="
1B"
b10000000000000001101111 ;"
b1 /"
b0 <"
b101001 E
0n"
1$
1!
#410
1n"
0$
0!
#415
0F
b0x0000000000000001101111 5"
b1101111 6"
b1101111 4"
b10000000000000001101111 B
b10000000000000001101111 f
1'
13
0h
b0 g
0W
b0 G
xi
b10 ."
x_"
x`"
x\"
xM"
xL"
x""
x!"
bx $"
b0 v
0^
bx }
x|
bx &"
bx %"
bx000000000000 ,"
bx 8"
bx -"
bx0 :"
bx0 7"
0B"
b1 /"
b1 <"
bx ;"
b101010 E
0n"
1$
1!
#420
b110111 6"
b0x0000x00110111 5"
b10000100110111 4"
b10000100110111 B
b10000100110111 f
b10000100110111 <
b10000100110111 o"
b10000100110111 r"
1n"
0$
0!
#425
bx C
b10000000000000 g
b10000000000000 I
b10000000000000 J
b10100010 {
09"
b10000000000000 *"
b10000000000000 Q"
b10000000000000 e"
1h
b10000000000000 H
b10000000000000 G"
b10000000000000 Z"
b11 ."
b10 m"
1i
b10000100110111 5"
b1000 A
b10 +"
0_"
0`"
1\"
0M"
1L"
0""
0!"
b10 $"
b11 0"
b10 1"
b10 z
1a
b110111 }
0|
b10 &"
b0 %"
b10000000000000 ,"
b0 8"
b10 -"
b10 :"
b10000000000000 7"
b10 ="
1B"
b10000100110111 ;"
b101011 E
0n"
1$
1!
#430
b10111 6"
b10010100010111 5"
b10010100010111 4"
b10010100010111 B
b10010100010111 f
b10010100010111 <
b10010100010111 o"
b10010100010111 r"
1n"
0$
0!
#435
bx0x110 C
b10000000001000 g
b10000000001000 I
b10000000001000 J
b1000 t
b1000 o
b1000 p
b1000 q
b1000 r
b1000 s
b1000 u
b1000 R"
b1000 d"
b100 ."
b11 m"
b10000000001000 *"
b1000 )"
b1000 E"
b1000 ["
b1100 A
b11 +"
0a
1Z
b1010 z
b1010 $"
b100 0"
b11 1"
b10111 }
b1010 -"
b1010 :"
b11 ="
b10 /"
b10 <"
b10010100010111 ;"
b101100 E
0n"
1$
1!
#440
b10011 6"
b10111111100001010000010100010011 5"
b10100010011 4"
b10111111100001010000010100010011 B
b10111111100001010000010100010011 f
b10111111100001010000010100010011 <
b10111111100001010000010100010011 o"
b10111111100001010000010100010011 r"
1n"
0$
0!
#445
bx C
b1110000000000 I
b1100010 {
12"
b1110000000000 J
b0 t
b1110000000000 g
b0 o
b0 p
b0 q
1J"
1^"
b0 r
1h
b10000000001000 y
b10000001000 Q"
b10000001000 e"
b0 s
b101 ."
b100 m"
b10011 5"
b11111111111111111111101111111000 H
b11111111111111111111101111111000 G"
b11111111111111111111101111111000 Z"
b10000000001000 u
b10000000001000 R"
b11111111111111111101111111111000 d"
b10000 A
b100 +"
1]
0Z
0\"
0L"
1""
b1010 w
b11000 v
b1101111110010 $"
b100000000000000000001110000000000 *"
b10000000001000 )"
b10000000001000 E"
b10000000001000 ["
b101 0"
b100 1"
b10011 }
b0 &"
b1011111 %"
b10111111100001010000000000000000 ,"
b11111111111111111111101111111000 8"
b11111111111111111111101111101010 -"
b11111111111111111111001111101010 :"
b11111111111101010000001111111000 7"
b100 ="
b10111111100001010000010100010011 ;"
b11 /"
b11 <"
b101101 E
0n"
1$
1!
#450
1F
b11111111111111111111111110010111 5"
b10010111 6"
b1010110010111 4"
b1010110010111 B
b1010110010111 f
b1010110010111 <
b1010110010111 o"
b1010110010111 r"
1n"
0$
0!
#455
bx0x110 C
b1000000010000 g
b1000000010000 I
b10000 t
b1000000010000 J
b10000 o
b10000 p
b10000 q
b10000 r
b10100010 {
02"
b10000 s
b1000000000000 H
b1000000000000 G"
b1000000000000 Z"
b1000000000000 e"
b10000 d"
0^"
b1000000000000 Q"
0J"
0F
b10000 R"
b110 ."
b101 m"
b10000 u
b1010110010111 5"
b1000000010000 *"
b10000 )"
b10000 E"
b10000 ["
b10100 A
b101 +"
0]
1Z
0X
1_"
1\"
1M"
0""
1!"
b1011 z
b0 w
b0 v
b110 0"
b101 1"
b10111 }
1|
b1 &"
b0 %"
b1000000000000 ,"
b0 8"
b1011 -"
b100000001010 :"
b1000000000000 7"
b1011 $"
b0 y
b101 ="
b100 /"
b100 <"
b1010110010111 ;"
b101110 E
0n"
1$
1!
#460
1F
b10010011 6"
b11111111111111111000010110010011 5"
b1000010110010011 4"
b11000010100001011000010110010011 B
b11000010100001011000010110010011 f
b11000010100001011000010110010011 <
b11000010100001011000010110010011 o"
b11000010100001011000010110010011 r"
1n"
0$
0!
#465
bx C
b110000111000 I
b1100010 {
12"
b110000111000 J
b10000 t
b110000111000 g
b10000 o
b10000 p
b10000 q
b10000 r
1h
1^"
1J"
b1000000010000 y
b1111011000 Q"
b1111011000 e"
b1000000010000 s
b111 ."
b110 m"
b11111111111111111111111110010011 5"
b11111111111111111111110000101000 H
b11111111111111111111110000101000 G"
b11111111111111111111110000101000 Z"
b1000000010000 u
b1000000010000 R"
b11111111111111111110111111110000 d"
b11000 A
b110 +"
1]
0Z
0_"
0\"
0M"
1""
0!"
b1011 w
b1000 v
b110000111011 $"
b100000000000000000000110000111000 *"
b1000000010000 )"
b1000000010000 E"
b1000000010000 ["
b111 0"
b110 1"
b10011 }
0|
b0 &"
b1100001 %"
b11000010100001011000000000000000 ,"
b11111111111111111111110000101000 8"
b11111111111111111111110000101011 -"
b11111111111111111111110000101010 :"
b11111111111101011000010000101000 7"
b110 ="
b1000000010000 *#
b11000010100001011000010110010011 ;"
b101 /"
b101 <"
b101111 E
0n"
1$
1!
#470
0F
b10111 5"
b10111 6"
b10011000010111 4"
b10011000010111 B
b10011000010111 f
b10011000010111 <
b10011000010111 o"
b10011000010111 r"
1n"
0$
0!
#475
bx0x110 C
b10000000011000 g
b10000000011000 I
b10000000011000 J
b11000 t
b11000 o
b11000 p
b11000 q
b10000000000000 Q"
0J"
b10000000000000 e"
0^"
b11000 r
b10100010 {
02"
b10000000000000 H
b10000000000000 G"
b10000000000000 Z"
b11000 s
b11000 d"
b11000 u
b11000 R"
b1000 ."
b111 m"
b10011000010111 5"
b10000000011000 *"
b11000 )"
b11000 E"
b11000 ["
b11100 A
b111 +"
0]
1Z
1\"
1L"
0""
b1100 z
b0 w
b0 v
b1000 0"
b111 1"
b10111 }
b10 &"
b0 %"
b10000000000000 ,"
b0 8"
b1100 -"
b1100 :"
b10000000000000 7"
b1100 $"
b0 y
b111 ="
b110 /"
b110 <"
b10011000010111 ;"
b110000111000 *#
b110000 E
0n"
1$
1!
#480
b10011 6"
b10111110110001100000011000010011 5"
b11000010011 4"
b10111110110001100000011000010011 B
b10111110110001100000011000010011 f
b10111110110001100000011000010011 <
b10111110110001100000011000010011 o"
b10111110110001100000011000010011 r"
1n"
0$
0!
#485
bx C
b1110000000100 I
b1100010 {
12"
b1110000000100 J
b10 t
b1110000000100 g
b10 o
b10 p
b10000000011000 s"
b10 q
b10000000011000 @
b10000000011000 n
b10000000011000 p"
1J"
1^"
b100000 r
1h
b10000000011000 y
b10000000011000 x
b10000010100 Q"
b10000010100 e"
b10000000011000 s
b1001 ."
b1000 m"
b10011 5"
b11111111111111111111101111101100 H
b11111111111111111111101111101100 G"
b11111111111111111111101111101100 Z"
b10000000011000 u
b10000000011000 R"
b11111111111111111101111111101000 d"
b100000 A
b1000 +"
1]
0Z
0\"
0L"
1""
b1100 w
b1100 v
b1110000000100 $"
b100000000000000000001110000000100 *"
b10000000011000 )"
b10000000011000 E"
b10000000011000 ["
b1001 0"
b1000 1"
b10011 }
b0 &"
b1011111 %"
b10111110110001100000000000000000 ,"
b11111111111111111111101111101100 8"
b11111111111111111111101111101100 -"
b11111111111111111111001111101100 :"
b11111111111101100000001111101100 7"
b1000 ="
b10000000011000 +#
b10111110110001100000011000010011 ;"
b111 /"
b111 <"
b110001 E
0n"
1$
1!
#490
b1100011 5"
b1100011 6"
b101110001100011 4"
b110001010101110001100011 B
b110001010101110001100011 f
b110001010101110001100011 <
b110001010101110001100011 o"
b110001010101110001100011 r"
1n"
0$
0!
#495
b110001010101110001100011 B
b110001010101110001100011 f
b111000000 t
b111000000 o
b111000000 p
0h
b0 g
1'
b111000000 I
b111000000 q
13
13"
b111000000 J
b1110000000000 r
b1100011 6"
b0 G
b1110000000100 H
b1110000000100 G"
b1110000000100 Z"
b1110000000000 s
0W
b1010010 {
12"
b1110000000100 e"
b1110000000000 d"
0^"
b1110000000100 Q"
0J"
b1110000000000 u
b1110000000000 R"
b1010 ."
b1001 m"
1U
0i
b101110001100011 5"
b111111111111111111111111111111100 *"
b1110000000000 )"
b1110000000000 E"
b1110000000000 ["
b1110000000100 s"
b100100 A
b1001 +"
0]
1[
1_"
1\"
1M"
0""
1!"
b11000 z
b1010 w
b1110000000100 @
b1110000000100 n
b1110000000100 p"
b1010 0"
b1001 1"
b1100011 }
0|
b101 &"
b0 %"
b110001010101000000000000 ,"
b1100 8"
b11000 -"
b11000 :"
b1010101000000001100 7"
b1110000011000 $"
b1110000000000 y
b1110000000100 x
b1001 ="
b1000 /"
b1000 <"
b110001010101110001100011 ;"
b1110000000100 +#
b110010 E
0n"
1$
1!
#500
b10000011 6"
b1010011010000011 5"
b1010011010000011 4"
b1011010011010000011 B
b1011010011010000011 f
b1011010011010000011 <
b1011010011010000011 o"
b1011010011010000011 r"
1n"
0$
0!
#505
b110000111000 t
b110000111000 o
b110000111000 p
b110000111000 q
b110000111000 r
1h
b0 Q"
b0 e"
b110000111000 s
b0 H
b0 G"
b0 Z"
b0 I
b110000111000 u
b110000111000 R"
b110000111000 d"
b1011010011010000011 g
b110000111000 )"
b110000111000 E"
b110000111000 ["
b0 s"
03"
b1010011010000011 4"
b10000011 6"
b0 J
b0 @
b0 n
b0 p"
0Q
b10100010 {
02"
b1011010011010000011 5"
b110000111000 y
b0 x
b1010 ."
b1100001110 m"
b110000111000 *"
0U
1F
b110000111000 A
b1100001110 +"
1`
0[
0_"
0M"
1L"
0!"
b1101 z
b1011 w
b0 v
b110000111000 $"
b1010 0"
b1010 1"
b11 }
b10 &"
b1011010000000000000 ,"
b0 8"
b1101 -"
b100000001100 :"
b1011010000000000000 7"
b1010 ="
b1011010011010000011 ;"
b1001 /"
b1001 <"
b110011 E
0n"
1$
1!
#510
b100000 g
0F
b100000 6"
b100000 5"
b100000 4"
b100000 B
b100000 f
b100000 <
b100000 o"
b100000 r"
1n"
0$
0!
#515
b0 t
b0 I
b0 o
b0 p
b0 J
b0 q
b0 r
b0 s
0h
1|
b10100001 {
19"
b0 u
b0 R"
b0 d"
b1011 ."
b0 *"
b0 )"
b0 E"
b0 ["
b0 g
b1010 m"
b1011 0"
b0 $"
b0 y
1Q
b101000 A
b1010 +"
1i
0\"
0L"
1""
b0 z
b0 w
0`
b100000 }
b0 &"
b0 ,"
b0 -"
b0 :"
b0 7"
0B"
b1010 /"
b1010 <"
b100000 ;"
b100000 ,#
b110100 E
0n"
1$
1!
#520
b100011 5"
b100011 6"
b10000000100011 4"
b110101010010000000100011 B
b110101010010000000100011 f
b110101010010000000100011 <
b110101010010000000100011 o"
b110101010010000000100011 r"
1n"
0$
0!
#525
b1110000000000 t
b1110000000000 o
b1110000000000 p
b1110000000000 q
b1110000000000 r
b1110000000000 s
b10100010 {
09"
b1110000000000 u
b1110000000000 R"
b1110000000000 d"
b1110000000000 *"
b1110000000000 )"
b1110000000000 E"
b1110000000000 ["
b100000 s"
b100000 @
b100000 n
b100000 p"
b1011 ."
b11100000000 m"
b1110000000000 $"
b1110000000000 y
b100000 x
0Q
b1111 q"
0i
b110101010010000000100011 5"
b1110000000000 A
b11100000000 +"
b1111 ;
b1111 m
1\"
1L"
0""
b1011 0"
b1011 1"
b1010 w
b1101 v
1d
b100011 }
0|
b10 &"
b110101010010000000000000 ,"
b1101 8"
b1010010100000001100 7"
b1011 ="
1B"
b110101010010000000100011 ;"
b110101 E
0n"
1$
1!
#530
b0 6"
b0 5"
b0 4"
b0 B
b0 f
b0 <
b0 o"
b0 r"
1n"
0$
0!
#535
b0 t
b0 I
b0 o
b0 p
b0 J
b0 q
b0 r
b0 s
1|
b10100001 {
19"
b0 u
b0 R"
b0 d"
b0 *"
b0 )"
b0 E"
b0 ["
b0 s"
b1100 ."
b0 @
b0 n
b0 p"
b1011 m"
b0 $"
b0 y
b0 x
1Q
b101100 A
b1011 +"
b1100 0"
b0 q"
1i
b0 ;
b0 m
0\"
0L"
1""
b0 w
b0 v
0d
b0 }
b0 &"
b0 ,"
b0 8"
b0 7"
0B"
b1011 /"
b1011 <"
b0 ;"
b110110 E
0n"
1$
1!
#540
b10011 5"
b10011 6"
b10100010011 4"
b10001010000010100010011 B
b10001010000010100010011 f
b10001010000010100010011 <
b10001010000010100010011 o"
b10001010000010100010011 r"
1n"
0$
0!
#545
b1110000000100 g
b1110000000100 I
b1110000000100 J
b111000000 t
b111000000 o
b111000000 p
b111000000 q
b1110000000000 r
1h
b100 Q"
b100 e"
b1110000000000 s
b100 H
b100 G"
b100 Z"
0|
b10100010 {
09"
b1110000000000 u
b1110000000000 R"
b1110000000000 d"
b1110000000100 *"
b1110000000000 )"
b1110000000000 E"
b1110000000000 ["
b1101 ."
b1100 m"
b1110000000000 y
b110000 A
b1100 +"
b1110000001010 $"
b1101 0"
b1100 1"
b1010 z
b1010 w
b100 v
1]
b10011 }
b10001010000000000000000 ,"
b100 8"
b1010 -"
b1010 :"
b1010000000000000100 7"
b1100 ="
1B"
b10001010000010100010011 ;"
b110111 E
0n"
1$
1!
#550
1F
b11111111111111111111111110010011 5"
b10010011 6"
b1000010110010011 4"
b10001011000010110010011 B
b10001011000010110010011 f
b10001011000010110010011 <
b10001011000010110010011 o"
b10001011000010110010011 r"
1n"
0$
0!
#555
b110000111100 g
b11000011 t
b11000011 o
b110000111100 I
b11000011 p
b11000011 q
b110000111100 J
b110000111000 r
b110000111000 s
b110000111000 u
b110000111000 R"
b110000111000 d"
b1110 ."
b1101 m"
b110000111100 *"
b110000111000 )"
b110000111000 E"
b110000111000 ["
b110100 A
b1101 +"
b1011 z
b1011 w
b1110 0"
b1101 1"
b10001011000000000000000 ,"
b1011 -"
b100000001010 :"
b1011000000000000100 7"
b110001000011 $"
b110000111000 y
b1101 ="
b1100 /"
b1100 <"
b10001011000010110010011 ;"
b111000 E
0n"
1$
1!
#560
b11111111111111111111111111100011 5"
b11100011 6"
b100100011100011 4"
b11111110110001010100100011100011 B
b11111110110001010100100011100011 f
b11111110110001010100100011100011 <
b11111110110001010100100011100011 o"
b11111110110001010100100011100011 r"
1n"
0$
0!
